{
    "locators":{
        "Addbtn":{
            "Xpath": "//*[@id='content']/cms-division-index-breadcrumbs/div/div[2]/ul/li/a"
        },
        "Actual":{
            "Xpath": "//*[@id='content']/div[2]/form/fieldset/div/div[1]/h6"
        },
        "Expected":{
            "title": "Add Division"
        },
        "AddName": {
              "Xpath": "//*[@id='name']"
        },
        "AddCode": {
            "Xpath" : "//*[@id='code']"
        },
        "AddSubmit": {
            "id" : "submit"
        },
        "DivisionName": {
            "DivisionHeading": "Automation"
        },
        "DivisionCode": {
            "DivisionNumber": "Div13"
        },
        "Alert": {
            "Xpath": "//*[@id='content']/div[2]/cms-alerts/div/p"
        },
        "Message": {
            "Success": "Success : create_division"
        },
        "Backbtn": {
            "Xpath": "//*[@id='content']/cms-division-form-breadcrumbs/div/div[2]/ul/li/a"
        },
        "Filter": {
          "Xpath": "//input[@type='search']"
        },
        "SearchInfo" : {
           "SeacrhName": "Third" 
        },
        "EditIcon":{
            "Xpath": "//*[@id='btnEdit']"
        },
        "EditName": {
            "Xpath": "//*[@id='name']"
        },
        "EditCode": {
            "Xpath": "//*[@id='code']"
        },
        "EditDivisionName": {
            "EditDivisionHeading" : "Third Test Division"
        },
        "EditDivisionCode": {
            "EditDivisionNumber": "third_test_division"
        },
        "EditMessage" : {
            "AlertMessage": "Success : division_updated"
        },
        "SelectIcon": {
            "Xpath": "html/body/div[1]/cms-division-index/div/div/div/div[2]/div/table/tbody/tr[3]/td[5]/button[1]"
        }
    }
}